{
  "1" : true,
  "7" : true,
  "8" : true,
  "17" : true,
  "18" : true,
  "19" : true,
  "21" : true,
  "22" : true,
  "23" : true,
  "24" : true,
  "27" : true,
  "34" : true,
  "35" : true,
  "36" : true,
  "37" : true,
  "38" : true,
  "39" : true,
  "40" : true,
  "41" : true,
  "44" : true,
  "45" : true,
  "52" : true,
  "53" : true,
  "54" : true,
  "80" : true,
  "91" : true,
  "131" : true,
  "182" : true,
  "203" : true,
  "213" : true,
  "217" : true,
  "238" : true,
  "242" : true,
  "258" : true,
  "326" : true,
  "328" : true,
  "329" : true,
  "330" : true,
  "332" : true,
  "333" : true,
  "335" : true,
  "338" : true,
  "341" : true,
  "346" : true,
  "347" : true,
  "397" : true,
  "429" : true,
  "445" : true,
  "454" : true,
  "477" : true,
  "495" : true,
  "505" : true,
  "679" : true,
  "748" : true,
  "755" : true,
  "799" : true,
  "851" : true,
  "853" : true,
  "1696" : true,
  "13687" : true
}
